xof 0303txt 0032

template XSkinMeshHeader {
  <3cf169ce-ff7c-44ab-93c0-f78f62d172e2>
  WORD nMaxSkinWeightsPerVertex;
  WORD nMaxSkinWeightsPerFace;
  WORD nBones;
}

template SkinWeights {
  <6f0d123b-bad2-4167-a0d0-80224f25fabb>
  STRING transformNodeName;
  DWORD nWeights;
  array DWORD vertexIndices[nWeights];
  array float weights[nWeights];
  Matrix4x4 matrixOffset;
}

Frame Root {
  FrameTransformMatrix {
     1.000000, 0.000000, 0.000000, 0.000000,
     0.000000,-0.000000,-1.000000, 0.000000,
     0.000000, 1.000000,-0.000000, 0.000000,
     0.000000, 0.000000, 0.000000, 1.000000;;
  }
  Frame Armature {
    FrameTransformMatrix {
       1.000000, 0.000000, 0.000000, 0.000000,
       0.000000, 1.000000, 0.000000, 0.000000,
       0.000000, 0.000000, 1.000000, 0.000000,
       0.000000, 0.000000, 0.000000, 1.000000;;
    }
    Frame Armature_body {
      FrameTransformMatrix {
         1.000000, 0.000000, 0.000000, 0.000000,
         0.000000, 0.000000, 1.000000, 0.000000,
         0.000000,-1.000000, 0.000000, 0.000000,
         0.000000, 0.000000, 0.000000, 1.000000;;
      }
      Frame Armature_head {
        FrameTransformMatrix {
           1.000000, 0.000000, 0.000000, 0.000000,
           0.000000, 0.000000,-1.000000, 0.000000,
           0.000000, 1.000000, 0.000000, 0.000000,
           0.000000,15.000000, 0.000000, 1.000000;;
        }
      } // End of Armature_head
    } // End of Armature_body
    Frame Plane {
      FrameTransformMatrix {
         1.000000, 0.000000, 0.000000, 0.000000,
         0.000000, 1.000000, 0.000000, 0.000000,
         0.000000, 0.000000, 1.000000, 0.000000,
         0.000000, 0.000000, 0.000000, 1.000000;;
      }
      Mesh { // Plane mesh
        24;
         5.000000;-5.000000;10.000000;,
        -5.000000;-5.000000;10.000000;,
        -5.000000;-5.000000;20.000000;,
         5.000000;-5.000000;20.000000;,
         5.000000; 5.000000;10.000000;,
         5.000000; 5.000000;20.000000;,
        -5.000000; 5.000000;20.000000;,
        -5.000000; 5.000000;10.000000;,
         5.000000;-5.000000;20.000000;,
        -5.000000;-5.000000;20.000000;,
        -5.000000; 5.000000;20.000000;,
         5.000000; 5.000000;20.000000;,
         5.000000;-5.000000;10.000000;,
         5.000000;-5.000000;20.000000;,
         5.000000; 5.000000;20.000000;,
         5.000000; 5.000000;10.000000;,
        -5.000000;-5.000000;10.000000;,
         5.000000;-5.000000;10.000000;,
         5.000000; 5.000000;10.000000;,
        -5.000000; 5.000000;10.000000;,
        -5.000000;-5.000000;20.000000;,
        -5.000000;-5.000000;10.000000;,
        -5.000000; 5.000000;10.000000;,
        -5.000000; 5.000000;20.000000;;
        6;
        4;0,1,2,3;,
        4;4,5,6,7;,
        4;8,9,10,11;,
        4;12,13,14,15;,
        4;16,17,18,19;,
        4;20,21,22,23;;
        MeshNormals { // Plane normals
          6;
           0.000000; 1.000000; 0.000000;,
           0.000000;-1.000000; 0.000000;,
           0.000000;-0.000000;-1.000000;,
          -1.000000;-0.000000; 0.000000;,
           0.000000; 0.000000; 1.000000;,
           1.000000; 0.000000; 0.000000;;
          6;
          4;0,0,0,0;,
          4;1,1,1,1;,
          4;2,2,2,2;,
          4;3,3,3,3;,
          4;4,4,4,4;,
          4;5,5,5,5;;
        } // End of Plane normals
        MeshTextureCoords { // Plane UV coordinates
          24;
           0.000000; 0.500000;,
           0.500000; 0.500000;,
           0.500000; 0.000000;,
           0.000000; 0.000000;,
           1.000000; 1.000000;,
           1.000000; 0.500000;,
           0.500000; 0.500000;,
           0.500000; 1.000000;,
           1.000000; 0.000000;,
           0.500000; 0.000000;,
           0.500000; 0.500000;,
           1.000000; 0.500000;,
           0.000000; 1.000000;,
           0.000000; 0.500000;,
           0.500000; 0.500000;,
           0.500000; 1.000000;,
           0.500000; 0.000000;,
           0.000000; 0.000000;,
           0.000000; 0.500000;,
           0.500000; 0.500000;,
           0.000000; 0.500000;,
           0.000000; 1.000000;,
           0.500000; 1.000000;,
           0.500000; 0.500000;;
        } // End of Plane UV coordinates
        XSkinMeshHeader {
          1;
          3;
          2;
        }
        SkinWeights {
          "Armature_body";
          0;
           1.000000, 0.000000, 0.000000, 0.000000,
           0.000000, 0.000000,-1.000000, 0.000000,
           0.000000, 1.000000, 0.000000, 0.000000,
           0.000000, 0.000000, 0.000000, 1.000000;;
        } // End of Armature_body skin weights
        SkinWeights {
          "Armature_head";
          24;
          0,
          1,
          2,
          3,
          4,
          5,
          6,
          7,
          8,
          9,
          10,
          11,
          12,
          13,
          14,
          15,
          16,
          17,
          18,
          19,
          20,
          21,
          22,
          23;
           1.000000,
           1.000000,
           1.000000,
           1.000000,
           1.000000,
           1.000000,
           1.000000,
           1.000000,
           1.000000,
           1.000000,
           1.000000,
           1.000000,
           1.000000,
           1.000000,
           1.000000,
           1.000000,
           1.000000,
           1.000000,
           1.000000,
           1.000000,
           1.000000,
           1.000000,
           1.000000,
           1.000000;
           1.000000, 0.000000, 0.000000, 0.000000,
           0.000000, 1.000000, 0.000000, 0.000000,
           0.000000, 0.000000, 1.000000, 0.000000,
           0.000000, 0.000000,-15.000000, 1.000000;;
        } // End of Armature_head skin weights
      } // End of Plane mesh
    } // End of Plane
  } // End of Armature
} // End of Root
