# Blender v2.79 (sub 0) OBJ File: ''
# www.blender.org
o Cube
v 0.500000 -0.500000 -0.500000
v 0.500000 -0.500000 0.500000
v -0.500000 -0.500000 0.500000
v -0.500000 -0.500000 -0.500000
v 0.500000 0.500000 -0.500000
v 0.500000 0.500000 0.500000
v -0.500000 0.500000 0.500000
v -0.500000 0.500000 -0.500000
v 0.238133 -0.422120 -0.238133
v 0.238133 -0.422120 0.238133
v -0.238133 -0.422120 0.238133
v -0.238133 -0.422120 -0.238133
v 0.238133 0.422120 -0.238133
v -0.238133 0.422120 -0.238133
v -0.238133 0.422120 0.238133
v 0.238133 0.422120 0.238133
v 0.422120 -0.238133 -0.238133
v 0.422120 0.238133 -0.238133
v 0.422119 0.238133 0.238133
v 0.422120 -0.238133 0.238133
v 0.238133 -0.238133 0.422120
v 0.238133 0.238133 0.422120
v -0.238133 0.238133 0.422120
v -0.238133 -0.238133 0.422120
v -0.422120 -0.238133 0.238133
v -0.422120 0.238133 0.238133
v -0.422120 0.238133 -0.238133
v -0.422120 -0.238133 -0.238133
v 0.238133 0.238133 -0.422120
v 0.238133 -0.238133 -0.422120
v -0.238133 -0.238133 -0.422120
v -0.238133 0.238133 -0.422120
v 0.238133 -0.492120 -0.238133
v 0.238133 -0.492120 0.238133
v -0.238133 -0.492120 0.238133
v -0.238133 -0.492120 -0.238133
v 0.238133 0.492120 -0.238133
v -0.238133 0.492120 -0.238133
v -0.238133 0.492120 0.238133
v 0.238133 0.492120 0.238133
v 0.492120 -0.238133 -0.238133
v 0.492120 0.238133 -0.238133
v 0.492119 0.238133 0.238133
v 0.492120 -0.238133 0.238133
v 0.238133 -0.238133 0.492120
v 0.238133 0.238133 0.492120
v -0.238133 0.238133 0.492120
v -0.238133 -0.238133 0.492120
v -0.492120 -0.238133 0.238133
v -0.492120 0.238133 0.238133
v -0.492120 0.238133 -0.238133
v -0.492120 -0.238133 -0.238133
v 0.238133 0.238133 -0.492120
v 0.238133 -0.238133 -0.492120
v -0.238133 -0.238133 -0.492120
v -0.238133 0.238133 -0.492120
vt 0.000000 0.000000
vt 1.000000 0.000000
vt 0.782068 0.217932
vt 0.217932 0.217932
vt 1.000000 1.000000
vt 0.782068 0.782068
vt 0.000000 1.000000
vt 0.217932 0.782068
vt 0.000000 0.000000
vt 1.000000 0.000000
vt 0.782068 0.217932
vt 0.217932 0.217932
vt 1.000000 1.000000
vt 0.782068 0.782068
vt 0.000000 1.000000
vt 0.217932 0.782068
vt 1.000000 0.000000
vt 0.782068 0.217932
vt 0.217932 0.217932
vt 1.000000 1.000000
vt 0.782068 0.782068
vt 0.000000 1.000000
vt 0.217932 0.782068
vt 0.000000 0.000000
vt 1.000000 0.000000
vt 0.782068 0.217932
vt 0.217932 0.217932
vt 0.782068 0.782068
vt 0.000000 1.000000
vt 0.217932 0.782068
vt 0.000000 0.000000
vt 1.000000 0.000000
vt 0.782068 0.217932
vt 0.217932 0.217932
vt 1.000000 1.000000
vt 0.782068 0.782068
vt 0.217932 0.782068
vt 1.000000 0.000000
vt 0.782068 0.217932
vt 0.217932 0.217932
vt 1.000000 1.000000
vt 0.782068 0.782068
vt 0.000000 1.000000
vt 0.217932 0.782068
vt 0.217932 0.217932
vt 0.782068 0.217932
vt 0.782068 0.782068
vt 0.217932 0.782068
vt 0.217932 0.217932
vt 0.782068 0.217932
vt 0.782068 0.782068
vt 0.217932 0.782068
vt 0.217932 0.217932
vt 0.782068 0.217932
vt 0.782068 0.782068
vt 0.217932 0.782068
vt 0.217932 0.217932
vt 0.782068 0.217932
vt 0.782068 0.782068
vt 0.217932 0.782068
vt 0.217932 0.217932
vt 0.782068 0.217932
vt 0.782068 0.782068
vt 0.217932 0.782068
vt 0.217932 0.217932
vt 0.782068 0.217932
vt 0.782068 0.782068
vt 0.217932 0.782068
vn -0.2851 -0.9585 0.0000
vn 0.0000 -0.9585 -0.2851
vn 0.2851 -0.9585 0.0000
vn -0.0000 -0.9585 0.2851
vn -0.0000 0.9585 0.2851
vn 0.2851 0.9585 0.0000
vn 0.0000 0.9585 -0.2851
vn -0.2851 0.9585 -0.0000
vn 0.9585 -0.0000 0.2851
vn 0.9585 -0.2851 0.0000
vn 0.9585 0.0000 -0.2851
vn 0.9585 0.2851 -0.0000
vn -0.2851 -0.0000 0.9585
vn -0.0000 -0.2851 0.9585
vn 0.2851 0.0000 0.9585
vn -0.0000 0.2851 0.9585
vn -0.9585 -0.0000 -0.2851
vn -0.9585 -0.2851 -0.0000
vn -0.9585 -0.0000 0.2851
vn -0.9585 0.2851 -0.0000
vn -0.2851 0.0000 -0.9585
vn 0.0000 0.2851 -0.9585
vn 0.2851 0.0000 -0.9585
vn 0.0000 -0.2851 -0.9585
vn 0.0000 -1.0000 0.0000
vn 1.0000 0.0000 0.0000
vn -0.0000 0.0000 1.0000
vn -1.0000 0.0000 -0.0000
vn 0.0000 0.0000 -1.0000
vn 0.0000 1.0000 0.0000
s off
f 1/1/1 2/2/1 10/3/1 9/4/1
f 2/2/2 3/5/2 11/6/2 10/3/2
f 3/5/3 4/7/3 12/8/3 11/6/3
f 4/7/4 1/1/4 9/4/4 12/8/4
f 5/9/5 8/10/5 14/11/5 13/12/5
f 8/10/6 7/13/6 15/14/6 14/11/6
f 7/13/7 6/15/7 16/16/7 15/14/7
f 6/15/8 5/9/8 13/12/8 16/16/8
f 1/1/9 5/17/9 18/18/9 17/19/9
f 5/17/10 6/20/10 19/21/10 18/18/10
f 6/20/11 2/22/11 20/23/11 19/21/11
f 2/22/12 1/1/12 17/19/12 20/23/12
f 2/24/13 6/25/13 22/26/13 21/27/13
f 6/25/14 7/13/14 23/28/14 22/26/14
f 7/13/15 3/29/15 24/30/15 23/28/15
f 3/29/16 2/24/16 21/27/16 24/30/16
f 3/31/17 7/32/17 26/33/17 25/34/17
f 7/32/18 8/35/18 27/36/18 26/33/18
f 8/35/19 4/7/19 28/37/19 27/36/19
f 4/7/20 3/31/20 25/34/20 28/37/20
f 5/9/21 1/38/21 30/39/21 29/40/21
f 1/38/22 4/41/22 31/42/22 30/39/22
f 4/41/23 8/43/23 32/44/23 31/42/23
f 8/43/24 5/9/24 29/40/24 32/44/24
f 33/45/25 34/46/25 35/47/25 36/48/25
f 10/3/26 34/46/26 33/45/26 9/4/26
f 11/6/27 35/47/27 34/46/27 10/3/27
f 12/8/28 36/48/28 35/47/28 11/6/28
f 9/4/29 33/45/29 36/48/29 12/8/29
f 37/49/30 38/50/30 39/51/30 40/52/30
f 14/11/29 38/50/29 37/49/29 13/12/29
f 15/14/28 39/51/28 38/50/28 14/11/28
f 16/16/27 40/52/27 39/51/27 15/14/27
f 13/12/26 37/49/26 40/52/26 16/16/26
f 41/53/26 42/54/26 43/55/26 44/56/26
f 18/18/29 42/54/29 41/53/29 17/19/29
f 19/21/30 43/55/30 42/54/30 18/18/30
f 20/23/27 44/56/27 43/55/27 19/21/27
f 17/19/25 41/53/25 44/56/25 20/23/25
f 45/57/27 46/58/27 47/59/27 48/60/27
f 22/26/26 46/58/26 45/57/26 21/27/26
f 23/28/30 47/59/30 46/58/30 22/26/30
f 24/30/28 48/60/28 47/59/28 23/28/28
f 21/27/25 45/57/25 48/60/25 24/30/25
f 49/61/28 50/62/28 51/63/28 52/64/28
f 26/33/27 50/62/27 49/61/27 25/34/27
f 27/36/30 51/63/30 50/62/30 26/33/30
f 28/37/29 52/64/29 51/63/29 27/36/29
f 25/34/25 49/61/25 52/64/25 28/37/25
f 53/65/29 54/66/29 55/67/29 56/68/29
f 30/39/26 54/66/26 53/65/26 29/40/26
f 31/42/25 55/67/25 54/66/25 30/39/25
f 32/44/28 56/68/28 55/67/28 31/42/28
f 29/40/30 53/65/30 56/68/30 32/44/30
